\relax 
\@writefile{toc}{\contentsline {section}{\numberline {1}Symmetric row column update of size n symmetric eigenvalue problem}{1}}
\newlabel{eq:matrix}{{1}{1}}
\@writefile{toc}{\contentsline {subsection}{\numberline {1.1}Bisection root finding}{1}}
\@writefile{toc}{\contentsline {subsection}{\numberline {1.2}Symmetric row-column update}{1}}
\newlabel{fig1}{{1.3}{2}}
\@writefile{lof}{\contentsline {figure}{\numberline {1}{\ignorespaces Figure showing the eigenvalue function, and the different values where it is 0, which means that, that value is an eigenvalue.}}{2}}
\@writefile{toc}{\contentsline {subsection}{\numberline {1.3}Results}{2}}
