<?xml version="1.0" encoding="utf-8"  standalone="no"?>
<svg 
 width="600" height="480"
 viewBox="0 0 600 480"
 xmlns="http://www.w3.org/2000/svg"
 xmlns:xlink="http://www.w3.org/1999/xlink"
>

<title>Gnuplot</title>
<desc>Produced by GNUPLOT 5.2 patchlevel 2 </desc>

<g id="gnuplot_canvas">

<rect x="0" y="0" width="600" height="480" fill="#ffffff"/>
<defs>

	<circle id='gpDot' r='0.5' stroke-width='0.5'/>
	<path id='gpPt0' stroke-width='0.222' stroke='currentColor' d='M-1,0 h2 M0,-1 v2'/>
	<path id='gpPt1' stroke-width='0.222' stroke='currentColor' d='M-1,-1 L1,1 M1,-1 L-1,1'/>
	<path id='gpPt2' stroke-width='0.222' stroke='currentColor' d='M-1,0 L1,0 M0,-1 L0,1 M-1,-1 L1,1 M-1,1 L1,-1'/>
	<rect id='gpPt3' stroke-width='0.222' stroke='currentColor' x='-1' y='-1' width='2' height='2'/>
	<rect id='gpPt4' stroke-width='0.222' stroke='currentColor' fill='currentColor' x='-1' y='-1' width='2' height='2'/>
	<circle id='gpPt5' stroke-width='0.222' stroke='currentColor' cx='0' cy='0' r='1'/>
	<use xlink:href='#gpPt5' id='gpPt6' fill='currentColor' stroke='none'/>
	<path id='gpPt7' stroke-width='0.222' stroke='currentColor' d='M0,-1.33 L-1.33,0.67 L1.33,0.67 z'/>
	<use xlink:href='#gpPt7' id='gpPt8' fill='currentColor' stroke='none'/>
	<use xlink:href='#gpPt7' id='gpPt9' stroke='currentColor' transform='rotate(180)'/>
	<use xlink:href='#gpPt9' id='gpPt10' fill='currentColor' stroke='none'/>
	<use xlink:href='#gpPt3' id='gpPt11' stroke='currentColor' transform='rotate(45)'/>
	<use xlink:href='#gpPt11' id='gpPt12' fill='currentColor' stroke='none'/>
	<path id='gpPt13' stroke-width='0.222' stroke='currentColor' d='M0,1.330 L1.265,0.411 L0.782,-1.067 L-0.782,-1.076 L-1.265,0.411 z'/>
	<use xlink:href='#gpPt13' id='gpPt14' fill='currentColor' stroke='none'/>
	<filter id='textbox' filterUnits='objectBoundingBox' x='0' y='0' height='1' width='1'>
	  <feFlood flood-color='#FFFFFF' flood-opacity='1' result='bgnd'/>
	  <feComposite in='SourceGraphic' in2='bgnd' operator='atop'/>
	</filter>
	<filter id='greybox' filterUnits='objectBoundingBox' x='0' y='0' height='1' width='1'>
	  <feFlood flood-color='lightgrey' flood-opacity='1' result='grey'/>
	  <feComposite in='SourceGraphic' in2='grey' operator='atop'/>
	</filter>
</defs>
<g fill="none" color="#FFFFFF" stroke="currentColor" stroke-width="1.00" stroke-linecap="butt" stroke-linejoin="miter">
</g>
<g fill="none" color="black" stroke="currentColor" stroke-width="1.00" stroke-linecap="butt" stroke-linejoin="miter">
</g>
<g fill="none" color="black" stroke="black" stroke-width="0.50" stroke-linecap="butt" stroke-linejoin="miter">
</g>
<g fill="none" color="gray" stroke="currentColor" stroke-width="0.50" stroke-linecap="butt" stroke-linejoin="miter">
	<path stroke='gray' stroke-dasharray='2,4' class="gridline"  d='M80.2,422.4 L575.0,422.4  '/></g>
<g fill="none" color="gray" stroke="gray" stroke-width="1.00" stroke-linecap="butt" stroke-linejoin="miter">
</g>
<g fill="none" color="black" stroke="currentColor" stroke-width="1.00" stroke-linecap="butt" stroke-linejoin="miter">
	<path stroke='black'  d='M80.2,422.4 L89.2,422.4 M575.0,422.4 L566.0,422.4  '/>	<g transform="translate(71.9,426.3)" stroke="none" fill="black" font-family="Arial" font-size="12.00"  text-anchor="end">
		<text><tspan font-family="Arial" > 0</tspan></text>
	</g>
</g>
<g fill="none" color="black" stroke="currentColor" stroke-width="1.00" stroke-linecap="butt" stroke-linejoin="miter">
</g>
<g fill="none" color="black" stroke="black" stroke-width="0.50" stroke-linecap="butt" stroke-linejoin="miter">
</g>
<g fill="none" color="gray" stroke="currentColor" stroke-width="0.50" stroke-linecap="butt" stroke-linejoin="miter">
	<path stroke='gray' stroke-dasharray='2,4' class="gridline"  d='M80.2,376.4 L575.0,376.4  '/></g>
<g fill="none" color="gray" stroke="gray" stroke-width="1.00" stroke-linecap="butt" stroke-linejoin="miter">
</g>
<g fill="none" color="black" stroke="currentColor" stroke-width="1.00" stroke-linecap="butt" stroke-linejoin="miter">
	<path stroke='black'  d='M80.2,376.4 L89.2,376.4 M575.0,376.4 L566.0,376.4  '/>	<g transform="translate(71.9,380.3)" stroke="none" fill="black" font-family="Arial" font-size="12.00"  text-anchor="end">
		<text><tspan font-family="Arial" > 0.05</tspan></text>
	</g>
</g>
<g fill="none" color="black" stroke="currentColor" stroke-width="1.00" stroke-linecap="butt" stroke-linejoin="miter">
</g>
<g fill="none" color="black" stroke="black" stroke-width="0.50" stroke-linecap="butt" stroke-linejoin="miter">
</g>
<g fill="none" color="gray" stroke="currentColor" stroke-width="0.50" stroke-linecap="butt" stroke-linejoin="miter">
	<path stroke='gray' stroke-dasharray='2,4' class="gridline"  d='M80.2,330.3 L575.0,330.3  '/></g>
<g fill="none" color="gray" stroke="gray" stroke-width="1.00" stroke-linecap="butt" stroke-linejoin="miter">
</g>
<g fill="none" color="black" stroke="currentColor" stroke-width="1.00" stroke-linecap="butt" stroke-linejoin="miter">
	<path stroke='black'  d='M80.2,330.3 L89.2,330.3 M575.0,330.3 L566.0,330.3  '/>	<g transform="translate(71.9,334.2)" stroke="none" fill="black" font-family="Arial" font-size="12.00"  text-anchor="end">
		<text><tspan font-family="Arial" > 0.1</tspan></text>
	</g>
</g>
<g fill="none" color="black" stroke="currentColor" stroke-width="1.00" stroke-linecap="butt" stroke-linejoin="miter">
</g>
<g fill="none" color="black" stroke="black" stroke-width="0.50" stroke-linecap="butt" stroke-linejoin="miter">
</g>
<g fill="none" color="gray" stroke="currentColor" stroke-width="0.50" stroke-linecap="butt" stroke-linejoin="miter">
	<path stroke='gray' stroke-dasharray='2,4' class="gridline"  d='M80.2,284.3 L575.0,284.3  '/></g>
<g fill="none" color="gray" stroke="gray" stroke-width="1.00" stroke-linecap="butt" stroke-linejoin="miter">
</g>
<g fill="none" color="black" stroke="currentColor" stroke-width="1.00" stroke-linecap="butt" stroke-linejoin="miter">
	<path stroke='black'  d='M80.2,284.3 L89.2,284.3 M575.0,284.3 L566.0,284.3  '/>	<g transform="translate(71.9,288.2)" stroke="none" fill="black" font-family="Arial" font-size="12.00"  text-anchor="end">
		<text><tspan font-family="Arial" > 0.15</tspan></text>
	</g>
</g>
<g fill="none" color="black" stroke="currentColor" stroke-width="1.00" stroke-linecap="butt" stroke-linejoin="miter">
</g>
<g fill="none" color="black" stroke="black" stroke-width="0.50" stroke-linecap="butt" stroke-linejoin="miter">
</g>
<g fill="none" color="gray" stroke="currentColor" stroke-width="0.50" stroke-linecap="butt" stroke-linejoin="miter">
	<path stroke='gray' stroke-dasharray='2,4' class="gridline"  d='M80.2,238.2 L575.0,238.2  '/></g>
<g fill="none" color="gray" stroke="gray" stroke-width="1.00" stroke-linecap="butt" stroke-linejoin="miter">
</g>
<g fill="none" color="black" stroke="currentColor" stroke-width="1.00" stroke-linecap="butt" stroke-linejoin="miter">
	<path stroke='black'  d='M80.2,238.2 L89.2,238.2 M575.0,238.2 L566.0,238.2  '/>	<g transform="translate(71.9,242.1)" stroke="none" fill="black" font-family="Arial" font-size="12.00"  text-anchor="end">
		<text><tspan font-family="Arial" > 0.2</tspan></text>
	</g>
</g>
<g fill="none" color="black" stroke="currentColor" stroke-width="1.00" stroke-linecap="butt" stroke-linejoin="miter">
</g>
<g fill="none" color="black" stroke="black" stroke-width="0.50" stroke-linecap="butt" stroke-linejoin="miter">
</g>
<g fill="none" color="gray" stroke="currentColor" stroke-width="0.50" stroke-linecap="butt" stroke-linejoin="miter">
	<path stroke='gray' stroke-dasharray='2,4' class="gridline"  d='M80.2,192.2 L575.0,192.2  '/></g>
<g fill="none" color="gray" stroke="gray" stroke-width="1.00" stroke-linecap="butt" stroke-linejoin="miter">
</g>
<g fill="none" color="black" stroke="currentColor" stroke-width="1.00" stroke-linecap="butt" stroke-linejoin="miter">
	<path stroke='black'  d='M80.2,192.2 L89.2,192.2 M575.0,192.2 L566.0,192.2  '/>	<g transform="translate(71.9,196.1)" stroke="none" fill="black" font-family="Arial" font-size="12.00"  text-anchor="end">
		<text><tspan font-family="Arial" > 0.25</tspan></text>
	</g>
</g>
<g fill="none" color="black" stroke="currentColor" stroke-width="1.00" stroke-linecap="butt" stroke-linejoin="miter">
</g>
<g fill="none" color="black" stroke="black" stroke-width="0.50" stroke-linecap="butt" stroke-linejoin="miter">
</g>
<g fill="none" color="gray" stroke="currentColor" stroke-width="0.50" stroke-linecap="butt" stroke-linejoin="miter">
	<path stroke='gray' stroke-dasharray='2,4' class="gridline"  d='M80.2,146.2 L575.0,146.2  '/></g>
<g fill="none" color="gray" stroke="gray" stroke-width="1.00" stroke-linecap="butt" stroke-linejoin="miter">
</g>
<g fill="none" color="black" stroke="currentColor" stroke-width="1.00" stroke-linecap="butt" stroke-linejoin="miter">
	<path stroke='black'  d='M80.2,146.2 L89.2,146.2 M575.0,146.2 L566.0,146.2  '/>	<g transform="translate(71.9,150.1)" stroke="none" fill="black" font-family="Arial" font-size="12.00"  text-anchor="end">
		<text><tspan font-family="Arial" > 0.3</tspan></text>
	</g>
</g>
<g fill="none" color="black" stroke="currentColor" stroke-width="1.00" stroke-linecap="butt" stroke-linejoin="miter">
</g>
<g fill="none" color="black" stroke="black" stroke-width="0.50" stroke-linecap="butt" stroke-linejoin="miter">
</g>
<g fill="none" color="gray" stroke="currentColor" stroke-width="0.50" stroke-linecap="butt" stroke-linejoin="miter">
	<path stroke='gray' stroke-dasharray='2,4' class="gridline"  d='M80.2,100.1 L575.0,100.1  '/></g>
<g fill="none" color="gray" stroke="gray" stroke-width="1.00" stroke-linecap="butt" stroke-linejoin="miter">
</g>
<g fill="none" color="black" stroke="currentColor" stroke-width="1.00" stroke-linecap="butt" stroke-linejoin="miter">
	<path stroke='black'  d='M80.2,100.1 L89.2,100.1 M575.0,100.1 L566.0,100.1  '/>	<g transform="translate(71.9,104.0)" stroke="none" fill="black" font-family="Arial" font-size="12.00"  text-anchor="end">
		<text><tspan font-family="Arial" > 0.35</tspan></text>
	</g>
</g>
<g fill="none" color="black" stroke="currentColor" stroke-width="1.00" stroke-linecap="butt" stroke-linejoin="miter">
</g>
<g fill="none" color="black" stroke="black" stroke-width="0.50" stroke-linecap="butt" stroke-linejoin="miter">
</g>
<g fill="none" color="gray" stroke="currentColor" stroke-width="0.50" stroke-linecap="butt" stroke-linejoin="miter">
	<path stroke='gray' stroke-dasharray='2,4' class="gridline"  d='M80.2,54.1 L575.0,54.1  '/></g>
<g fill="none" color="gray" stroke="gray" stroke-width="1.00" stroke-linecap="butt" stroke-linejoin="miter">
</g>
<g fill="none" color="black" stroke="currentColor" stroke-width="1.00" stroke-linecap="butt" stroke-linejoin="miter">
	<path stroke='black'  d='M80.2,54.1 L89.2,54.1 M575.0,54.1 L566.0,54.1  '/>	<g transform="translate(71.9,58.0)" stroke="none" fill="black" font-family="Arial" font-size="12.00"  text-anchor="end">
		<text><tspan font-family="Arial" > 0.4</tspan></text>
	</g>
</g>
<g fill="none" color="black" stroke="currentColor" stroke-width="1.00" stroke-linecap="butt" stroke-linejoin="miter">
</g>
<g fill="none" color="black" stroke="black" stroke-width="0.50" stroke-linecap="butt" stroke-linejoin="miter">
</g>
<g fill="none" color="gray" stroke="currentColor" stroke-width="0.50" stroke-linecap="butt" stroke-linejoin="miter">
	<path stroke='gray' stroke-dasharray='2,4' class="gridline"  d='M80.2,422.4 L80.2,54.1  '/></g>
<g fill="none" color="gray" stroke="gray" stroke-width="1.00" stroke-linecap="butt" stroke-linejoin="miter">
</g>
<g fill="none" color="black" stroke="currentColor" stroke-width="1.00" stroke-linecap="butt" stroke-linejoin="miter">
	<path stroke='black'  d='M80.2,422.4 L80.2,413.4 M80.2,54.1 L80.2,63.1  '/>	<g transform="translate(80.2,444.3)" stroke="none" fill="black" font-family="Arial" font-size="12.00"  text-anchor="middle">
		<text><tspan font-family="Arial" > 0</tspan></text>
	</g>
</g>
<g fill="none" color="black" stroke="currentColor" stroke-width="1.00" stroke-linecap="butt" stroke-linejoin="miter">
</g>
<g fill="none" color="black" stroke="black" stroke-width="0.50" stroke-linecap="butt" stroke-linejoin="miter">
</g>
<g fill="none" color="gray" stroke="currentColor" stroke-width="0.50" stroke-linecap="butt" stroke-linejoin="miter">
	<path stroke='gray' stroke-dasharray='2,4' class="gridline"  d='M129.7,422.4 L129.7,63.1 L129.7,54.1  '/></g>
<g fill="none" color="gray" stroke="gray" stroke-width="1.00" stroke-linecap="butt" stroke-linejoin="miter">
</g>
<g fill="none" color="black" stroke="currentColor" stroke-width="1.00" stroke-linecap="butt" stroke-linejoin="miter">
	<path stroke='black'  d='M129.7,422.4 L129.7,413.4 M129.7,54.1 L129.7,63.1  '/>	<g transform="translate(129.7,444.3)" stroke="none" fill="black" font-family="Arial" font-size="12.00"  text-anchor="middle">
		<text><tspan font-family="Arial" > 1</tspan></text>
	</g>
</g>
<g fill="none" color="black" stroke="currentColor" stroke-width="1.00" stroke-linecap="butt" stroke-linejoin="miter">
</g>
<g fill="none" color="black" stroke="black" stroke-width="0.50" stroke-linecap="butt" stroke-linejoin="miter">
</g>
<g fill="none" color="gray" stroke="currentColor" stroke-width="0.50" stroke-linecap="butt" stroke-linejoin="miter">
	<path stroke='gray' stroke-dasharray='2,4' class="gridline"  d='M179.2,422.4 L179.2,54.1  '/></g>
<g fill="none" color="gray" stroke="gray" stroke-width="1.00" stroke-linecap="butt" stroke-linejoin="miter">
</g>
<g fill="none" color="black" stroke="currentColor" stroke-width="1.00" stroke-linecap="butt" stroke-linejoin="miter">
	<path stroke='black'  d='M179.2,422.4 L179.2,413.4 M179.2,54.1 L179.2,63.1  '/>	<g transform="translate(179.2,444.3)" stroke="none" fill="black" font-family="Arial" font-size="12.00"  text-anchor="middle">
		<text><tspan font-family="Arial" > 2</tspan></text>
	</g>
</g>
<g fill="none" color="black" stroke="currentColor" stroke-width="1.00" stroke-linecap="butt" stroke-linejoin="miter">
</g>
<g fill="none" color="black" stroke="black" stroke-width="0.50" stroke-linecap="butt" stroke-linejoin="miter">
</g>
<g fill="none" color="gray" stroke="currentColor" stroke-width="0.50" stroke-linecap="butt" stroke-linejoin="miter">
	<path stroke='gray' stroke-dasharray='2,4' class="gridline"  d='M228.6,422.4 L228.6,54.1  '/></g>
<g fill="none" color="gray" stroke="gray" stroke-width="1.00" stroke-linecap="butt" stroke-linejoin="miter">
</g>
<g fill="none" color="black" stroke="currentColor" stroke-width="1.00" stroke-linecap="butt" stroke-linejoin="miter">
	<path stroke='black'  d='M228.6,422.4 L228.6,413.4 M228.6,54.1 L228.6,63.1  '/>	<g transform="translate(228.6,444.3)" stroke="none" fill="black" font-family="Arial" font-size="12.00"  text-anchor="middle">
		<text><tspan font-family="Arial" > 3</tspan></text>
	</g>
</g>
<g fill="none" color="black" stroke="currentColor" stroke-width="1.00" stroke-linecap="butt" stroke-linejoin="miter">
</g>
<g fill="none" color="black" stroke="black" stroke-width="0.50" stroke-linecap="butt" stroke-linejoin="miter">
</g>
<g fill="none" color="gray" stroke="currentColor" stroke-width="0.50" stroke-linecap="butt" stroke-linejoin="miter">
	<path stroke='gray' stroke-dasharray='2,4' class="gridline"  d='M278.1,422.4 L278.1,54.1  '/></g>
<g fill="none" color="gray" stroke="gray" stroke-width="1.00" stroke-linecap="butt" stroke-linejoin="miter">
</g>
<g fill="none" color="black" stroke="currentColor" stroke-width="1.00" stroke-linecap="butt" stroke-linejoin="miter">
	<path stroke='black'  d='M278.1,422.4 L278.1,413.4 M278.1,54.1 L278.1,63.1  '/>	<g transform="translate(278.1,444.3)" stroke="none" fill="black" font-family="Arial" font-size="12.00"  text-anchor="middle">
		<text><tspan font-family="Arial" > 4</tspan></text>
	</g>
</g>
<g fill="none" color="black" stroke="currentColor" stroke-width="1.00" stroke-linecap="butt" stroke-linejoin="miter">
</g>
<g fill="none" color="black" stroke="black" stroke-width="0.50" stroke-linecap="butt" stroke-linejoin="miter">
</g>
<g fill="none" color="gray" stroke="currentColor" stroke-width="0.50" stroke-linecap="butt" stroke-linejoin="miter">
	<path stroke='gray' stroke-dasharray='2,4' class="gridline"  d='M327.6,422.4 L327.6,54.1  '/></g>
<g fill="none" color="gray" stroke="gray" stroke-width="1.00" stroke-linecap="butt" stroke-linejoin="miter">
</g>
<g fill="none" color="black" stroke="currentColor" stroke-width="1.00" stroke-linecap="butt" stroke-linejoin="miter">
	<path stroke='black'  d='M327.6,422.4 L327.6,413.4 M327.6,54.1 L327.6,63.1  '/>	<g transform="translate(327.6,444.3)" stroke="none" fill="black" font-family="Arial" font-size="12.00"  text-anchor="middle">
		<text><tspan font-family="Arial" > 5</tspan></text>
	</g>
</g>
<g fill="none" color="black" stroke="currentColor" stroke-width="1.00" stroke-linecap="butt" stroke-linejoin="miter">
</g>
<g fill="none" color="black" stroke="black" stroke-width="0.50" stroke-linecap="butt" stroke-linejoin="miter">
</g>
<g fill="none" color="gray" stroke="currentColor" stroke-width="0.50" stroke-linecap="butt" stroke-linejoin="miter">
	<path stroke='gray' stroke-dasharray='2,4' class="gridline"  d='M377.1,422.4 L377.1,54.1  '/></g>
<g fill="none" color="gray" stroke="gray" stroke-width="1.00" stroke-linecap="butt" stroke-linejoin="miter">
</g>
<g fill="none" color="black" stroke="currentColor" stroke-width="1.00" stroke-linecap="butt" stroke-linejoin="miter">
	<path stroke='black'  d='M377.1,422.4 L377.1,413.4 M377.1,54.1 L377.1,63.1  '/>	<g transform="translate(377.1,444.3)" stroke="none" fill="black" font-family="Arial" font-size="12.00"  text-anchor="middle">
		<text><tspan font-family="Arial" > 6</tspan></text>
	</g>
</g>
<g fill="none" color="black" stroke="currentColor" stroke-width="1.00" stroke-linecap="butt" stroke-linejoin="miter">
</g>
<g fill="none" color="black" stroke="black" stroke-width="0.50" stroke-linecap="butt" stroke-linejoin="miter">
</g>
<g fill="none" color="gray" stroke="currentColor" stroke-width="0.50" stroke-linecap="butt" stroke-linejoin="miter">
	<path stroke='gray' stroke-dasharray='2,4' class="gridline"  d='M426.6,422.4 L426.6,54.1  '/></g>
<g fill="none" color="gray" stroke="gray" stroke-width="1.00" stroke-linecap="butt" stroke-linejoin="miter">
</g>
<g fill="none" color="black" stroke="currentColor" stroke-width="1.00" stroke-linecap="butt" stroke-linejoin="miter">
	<path stroke='black'  d='M426.6,422.4 L426.6,413.4 M426.6,54.1 L426.6,63.1  '/>	<g transform="translate(426.6,444.3)" stroke="none" fill="black" font-family="Arial" font-size="12.00"  text-anchor="middle">
		<text><tspan font-family="Arial" > 7</tspan></text>
	</g>
</g>
<g fill="none" color="black" stroke="currentColor" stroke-width="1.00" stroke-linecap="butt" stroke-linejoin="miter">
</g>
<g fill="none" color="black" stroke="black" stroke-width="0.50" stroke-linecap="butt" stroke-linejoin="miter">
</g>
<g fill="none" color="gray" stroke="currentColor" stroke-width="0.50" stroke-linecap="butt" stroke-linejoin="miter">
	<path stroke='gray' stroke-dasharray='2,4' class="gridline"  d='M476.0,422.4 L476.0,54.1  '/></g>
<g fill="none" color="gray" stroke="gray" stroke-width="1.00" stroke-linecap="butt" stroke-linejoin="miter">
</g>
<g fill="none" color="black" stroke="currentColor" stroke-width="1.00" stroke-linecap="butt" stroke-linejoin="miter">
	<path stroke='black'  d='M476.0,422.4 L476.0,413.4 M476.0,54.1 L476.0,63.1  '/>	<g transform="translate(476.0,444.3)" stroke="none" fill="black" font-family="Arial" font-size="12.00"  text-anchor="middle">
		<text><tspan font-family="Arial" > 8</tspan></text>
	</g>
</g>
<g fill="none" color="black" stroke="currentColor" stroke-width="1.00" stroke-linecap="butt" stroke-linejoin="miter">
</g>
<g fill="none" color="black" stroke="black" stroke-width="0.50" stroke-linecap="butt" stroke-linejoin="miter">
</g>
<g fill="none" color="gray" stroke="currentColor" stroke-width="0.50" stroke-linecap="butt" stroke-linejoin="miter">
	<path stroke='gray' stroke-dasharray='2,4' class="gridline"  d='M525.5,422.4 L525.5,54.1  '/></g>
<g fill="none" color="gray" stroke="gray" stroke-width="1.00" stroke-linecap="butt" stroke-linejoin="miter">
</g>
<g fill="none" color="black" stroke="currentColor" stroke-width="1.00" stroke-linecap="butt" stroke-linejoin="miter">
	<path stroke='black'  d='M525.5,422.4 L525.5,413.4 M525.5,54.1 L525.5,63.1  '/>	<g transform="translate(525.5,444.3)" stroke="none" fill="black" font-family="Arial" font-size="12.00"  text-anchor="middle">
		<text><tspan font-family="Arial" > 9</tspan></text>
	</g>
</g>
<g fill="none" color="black" stroke="currentColor" stroke-width="1.00" stroke-linecap="butt" stroke-linejoin="miter">
</g>
<g fill="none" color="black" stroke="black" stroke-width="0.50" stroke-linecap="butt" stroke-linejoin="miter">
</g>
<g fill="none" color="gray" stroke="currentColor" stroke-width="0.50" stroke-linecap="butt" stroke-linejoin="miter">
	<path stroke='gray' stroke-dasharray='2,4' class="gridline"  d='M575.0,422.4 L575.0,54.1  '/></g>
<g fill="none" color="gray" stroke="gray" stroke-width="1.00" stroke-linecap="butt" stroke-linejoin="miter">
</g>
<g fill="none" color="black" stroke="currentColor" stroke-width="1.00" stroke-linecap="butt" stroke-linejoin="miter">
	<path stroke='black'  d='M575.0,422.4 L575.0,413.4 M575.0,54.1 L575.0,63.1  '/>	<g transform="translate(575.0,444.3)" stroke="none" fill="black" font-family="Arial" font-size="12.00"  text-anchor="middle">
		<text><tspan font-family="Arial" > 10</tspan></text>
	</g>
</g>
<g fill="none" color="black" stroke="currentColor" stroke-width="1.00" stroke-linecap="butt" stroke-linejoin="miter">
</g>
<g fill="none" color="black" stroke="currentColor" stroke-width="1.00" stroke-linecap="butt" stroke-linejoin="miter">
	<path stroke='black'  d='M80.2,54.1 L80.2,422.4 L575.0,422.4 L575.0,54.1 L80.2,54.1 Z  '/></g>
<g fill="none" color="black" stroke="currentColor" stroke-width="1.00" stroke-linecap="butt" stroke-linejoin="miter">
	<g transform="translate(16.3,238.3) rotate(270)" stroke="none" fill="black" font-family="Arial" font-size="12.00"  text-anchor="middle">
		<text><tspan font-family="Arial" >y</tspan></text>
	</g>
</g>
<g fill="none" color="black" stroke="currentColor" stroke-width="1.00" stroke-linecap="butt" stroke-linejoin="miter">
	<g transform="translate(327.6,471.3)" stroke="none" fill="black" font-family="Arial" font-size="12.00"  text-anchor="middle">
		<text><tspan font-family="Arial" >x</tspan></text>
	</g>
</g>
<g fill="none" color="black" stroke="currentColor" stroke-width="1.00" stroke-linecap="butt" stroke-linejoin="miter">
	<g transform="translate(327.6,31.0)" stroke="none" fill="black" font-family="Arial" font-size="12.00"  text-anchor="middle">
		<text><tspan font-family="Arial" >equatorial motion of a planet around a star</tspan></text>
	</g>
</g>
	<g id="gnuplot_plot_1" ><title>gnuplot_plot_1</title>
<g fill="none" color="black" stroke="currentColor" stroke-width="1.00" stroke-linecap="butt" stroke-linejoin="miter">
	<path stroke='rgb(148,   0, 211)'  d='M80.2,422.4 L80.7,413.3 L81.2,404.4 L81.7,395.6 L82.2,387.0 L82.7,378.6 L83.2,370.4 L83.7,362.3
		L84.2,354.4 L84.7,346.7 L85.1,339.1 L85.6,331.7 L86.1,324.4 L86.6,317.3 L87.1,310.4 L87.6,303.5
		L88.1,296.9 L88.6,290.4 L89.1,284.0 L89.6,277.8 L90.1,271.7 L90.6,265.7 L91.1,259.9 L91.6,254.2
		L92.1,248.6 L92.6,243.2 L93.1,237.8 L93.6,232.7 L94.1,227.6 L94.5,222.6 L95.0,217.8 L95.5,213.1
		L96.0,208.5 L96.5,204.0 L97.0,199.6 L97.5,195.3 L98.0,191.2 L98.5,187.1 L99.0,183.2 L99.5,179.3
		L100.0,175.6 L100.5,171.9 L101.0,168.3 L101.5,164.9 L102.0,161.5 L102.5,158.2 L103.0,155.1 L103.5,152.0
		L104.0,149.0 L104.4,146.0 L104.9,143.2 L105.4,140.5 L105.9,137.8 L106.4,135.2 L106.9,132.7 L107.4,130.3
		L107.9,127.9 L108.4,125.6 L108.9,123.4 L109.4,121.3 L109.9,119.3 L110.4,117.3 L110.9,115.4 L111.4,113.5
		L111.9,111.7 L112.4,110.0 L112.9,108.4 L113.4,106.8 L113.8,105.3 L114.3,103.8 L114.8,102.4 L115.3,101.0
		L115.8,99.8 L116.3,98.5 L116.8,97.4 L117.3,96.3 L117.8,95.2 L118.3,94.2 L118.8,93.2 L119.3,92.3
		L119.8,91.5 L120.3,90.7 L120.8,89.9 L121.3,89.2 L121.8,88.6 L122.3,87.9 L122.8,87.4 L123.2,86.9
		L123.7,86.4 L124.2,85.9 L124.7,85.5 L125.2,85.2 L125.7,84.9 L126.2,84.6 L126.7,84.4 L127.2,84.2
		L127.7,84.0 L128.2,83.9 L128.7,83.8 L129.2,83.7 L129.7,83.7 L130.2,83.7 L130.7,83.8 L131.2,83.9
		L131.7,84.0 L132.2,84.1 L132.6,84.3 L133.1,84.5 L133.6,84.8 L134.1,85.0 L134.6,85.3 L135.1,85.6
		L135.6,86.0 L136.1,86.4 L136.6,86.8 L137.1,87.2 L137.6,87.6 L138.1,88.1 L138.6,88.6 L139.1,89.1
		L139.6,89.7 L140.1,90.2 L140.6,90.8 L141.1,91.4 L141.6,92.1 L142.1,92.7 L142.5,93.4 L143.0,94.1
		L143.5,94.8 L144.0,95.5 L144.5,96.2 L145.0,97.0 L145.5,97.8 L146.0,98.6 L146.5,99.4 L147.0,100.2
		L147.5,101.1 L148.0,101.9 L148.5,102.8 L149.0,103.7 L149.5,104.6 L150.0,105.5 L150.5,106.4 L151.0,107.4
		L151.5,108.3 L151.9,109.3 L152.4,110.3 L152.9,111.2 L153.4,112.2 L153.9,113.3 L154.4,114.3 L154.9,115.3
		L155.4,116.4 L155.9,117.4 L156.4,118.5 L156.9,119.5 L157.4,120.6 L157.9,121.7 L158.4,122.8 L158.9,123.9
		L159.4,125.0 L159.9,126.1 L160.4,127.3 L160.9,128.4 L161.3,129.5 L161.8,130.7 L162.3,131.8 L162.8,133.0
		L163.3,134.2 L163.8,135.3 L164.3,136.5 L164.8,137.7 L165.3,138.9 L165.8,140.1 L166.3,141.2 L166.8,142.4
		L167.3,143.6 L167.8,144.8 L168.3,146.1 L168.8,147.3 L169.3,148.5 L169.8,149.7 L170.3,150.9 L170.7,152.2
		L171.2,153.4 L171.7,154.6 L172.2,155.8 L172.7,157.1 L173.2,158.3 L173.7,159.5 L174.2,160.8 L174.7,162.0
		L175.2,163.3 L175.7,164.5 L176.2,165.8 L176.7,167.0 L177.2,168.2 L177.7,169.5 L178.2,170.7 L178.7,172.0
		L179.2,173.2 L179.7,174.5 L180.1,175.7 L180.6,177.0 L181.1,178.2 L181.6,179.4 L182.1,180.7 L182.6,181.9
		L183.1,183.2 L183.6,184.4 L184.1,185.7 L184.6,186.9 L185.1,188.1 L185.6,189.4 L186.1,190.6 L186.6,191.8
		L187.1,193.1 L187.6,194.3 L188.1,195.5 L188.6,196.8 L189.1,198.0 L189.6,199.2 L190.0,200.4 L190.5,201.7
		L191.0,202.9 L191.5,204.1 L192.0,205.3 L192.5,206.5 L193.0,207.7 L193.5,208.9 L194.0,210.1 L194.5,211.3
		L195.0,212.5 L195.5,213.7 L196.0,214.9 L196.5,216.1 L197.0,217.3 L197.5,218.4 L198.0,219.6 L198.5,220.8
		L199.0,222.0 L199.4,223.1 L199.9,224.3 L200.4,225.5 L200.9,226.6 L201.4,227.8 L201.9,228.9 L202.4,230.1
		L202.9,231.2 L203.4,232.3 L203.9,233.5 L204.4,234.6 L204.9,235.7 L205.4,236.9 L205.9,238.0 L206.4,239.1
		L206.9,240.2 L207.4,241.3 L207.9,242.4 L208.4,243.5 L208.8,244.6 L209.3,245.7 L209.8,246.8 L210.3,247.9
		L210.8,249.0 L211.3,250.0 L211.8,251.1 L212.3,252.2 L212.8,253.2 L213.3,254.3 L213.8,255.4 L214.3,256.4
		L214.8,257.4 L215.3,258.5 L215.8,259.5 L216.3,260.6 L216.8,261.6 L217.3,262.6 L217.8,263.6 L218.2,264.6
		L218.7,265.7 L219.2,266.7 L219.7,267.7 L220.2,268.7 L220.7,269.6 L221.2,270.6 L221.7,271.6 L222.2,272.6
		L222.7,273.6 L223.2,274.5 L223.7,275.5 L224.2,276.5 L224.7,277.4 L225.2,278.4 L225.7,279.3 L226.2,280.3
		L226.7,281.2 L227.2,282.1 L227.7,283.1 L228.1,284.0 L228.6,284.9 L229.1,285.8 L229.6,286.7 L230.1,287.6
		L230.6,288.5 L231.1,289.4 L231.6,290.3 L232.1,291.2 L232.6,292.1 L233.1,293.0 L233.6,293.8 L234.1,294.7
		L234.6,295.6 L235.1,296.4 L235.6,297.3 L236.1,298.1 L236.6,299.0 L237.1,299.8 L237.5,300.7 L238.0,301.5
		L238.5,302.3 L239.0,303.1 L239.5,304.0 L240.0,304.8 L240.5,305.6 L241.0,306.4 L241.5,307.2 L242.0,308.0
		L242.5,308.8 L243.0,309.6 L243.5,310.4 L244.0,311.1 L244.5,311.9 L245.0,312.7 L245.5,313.4 L246.0,314.2
		L246.5,315.0 L246.9,315.7 L247.4,316.5 L247.9,317.2 L248.4,317.9 L248.9,318.7 L249.4,319.4 L249.9,320.1
		L250.4,320.9 L250.9,321.6 L251.4,322.3 L251.9,323.0 L252.4,323.7 L252.9,324.4 L253.4,325.1 L253.9,325.8
		L254.4,326.5 L254.9,327.2 L255.4,327.9 L255.9,328.5 L256.3,329.2 L256.8,329.9 L257.3,330.5 L257.8,331.2
		L258.3,331.8 L258.8,332.5 L259.3,333.1 L259.8,333.8 L260.3,334.4 L260.8,335.1 L261.3,335.7 L261.8,336.3
		L262.3,337.0 L262.8,337.6 L263.3,338.2 L263.8,338.8 L264.3,339.4 L264.8,340.0 L265.3,340.6 L265.8,341.2
		L266.2,341.8 L266.7,342.4 L267.2,343.0 L267.7,343.6 L268.2,344.1 L268.7,344.7 L269.2,345.3 L269.7,345.9
		L270.2,346.4 L270.7,347.0 L271.2,347.5 L271.7,348.1 L272.2,348.6 L272.7,349.2 L273.2,349.7 L273.7,350.3
		L274.2,350.8 L274.7,351.3 L275.2,351.9 L275.6,352.4 L276.1,352.9 L276.6,353.4 L277.1,353.9 L277.6,354.5
		L278.1,355.0 L278.6,355.5 L279.1,356.0 L279.6,356.5 L280.1,357.0 L280.6,357.4 L281.1,357.9 L281.6,358.4
		L282.1,358.9 L282.6,359.4 L283.1,359.9 L283.6,360.3 L284.1,360.8 L284.6,361.3 L285.0,361.7 L285.5,362.2
		L286.0,362.6 L286.5,363.1 L287.0,363.5 L287.5,364.0 L288.0,364.4 L288.5,364.9 L289.0,365.3 L289.5,365.7
		L290.0,366.2 L290.5,366.6 L291.0,367.0 L291.5,367.4 L292.0,367.9 L292.5,368.3 L293.0,368.7 L293.5,369.1
		L294.0,369.5 L294.4,369.9 L294.9,370.3 L295.4,370.7 L295.9,371.1 L296.4,371.5 L296.9,371.9 L297.4,372.3
		L297.9,372.7 L298.4,373.1 L298.9,373.4 L299.4,373.8 L299.9,374.2 L300.4,374.6 L300.9,374.9 L301.4,375.3
		L301.9,375.7 L302.4,376.0 L302.9,376.4 L303.4,376.7 L303.8,377.1 L304.3,377.4 L304.8,377.8 L305.3,378.1
		L305.8,378.5 L306.3,378.8 L306.8,379.2 L307.3,379.5 L307.8,379.8 L308.3,380.2 L308.8,380.5 L309.3,380.8
		L309.8,381.2 L310.3,381.5 L310.8,381.8 L311.3,382.1 L311.8,382.4 L312.3,382.7 L312.8,383.1 L313.3,383.4
		L313.7,383.7 L314.2,384.0 L314.7,384.3 L315.2,384.6 L315.7,384.9 L316.2,385.2 L316.7,385.5 L317.2,385.8
		L317.7,386.0 L318.2,386.3 L318.7,386.6 L319.2,386.9 L319.7,387.2 L320.2,387.5 L320.7,387.7 L321.2,388.0
		L321.7,388.3 L322.2,388.5 L322.7,388.8 L323.1,389.1 L323.6,389.3 L324.1,389.6 L324.6,389.9 L325.1,390.1
		L325.6,390.4 L326.1,390.6 L326.6,390.9 L327.1,391.1 L327.6,391.4 L328.1,391.6 L328.6,391.9 L329.1,392.1
		L329.6,392.4 L330.1,392.6 L330.6,392.8 L331.1,393.1 L331.6,393.3 L332.1,393.6 L332.5,393.8 L333.0,394.0
		L333.5,394.2 L334.0,394.5 L334.5,394.7 L335.0,394.9 L335.5,395.1 L336.0,395.4 L336.5,395.6 L337.0,395.8
		L337.5,396.0 L338.0,396.2 L338.5,396.4 L339.0,396.6 L339.5,396.8 L340.0,397.0 L340.5,397.3 L341.0,397.5
		L341.5,397.7 L341.9,397.9 L342.4,398.1 L342.9,398.3 L343.4,398.4 L343.9,398.6 L344.4,398.8 L344.9,399.0
		L345.4,399.2 L345.9,399.4 L346.4,399.6 L346.9,399.8 L347.4,400.0 L347.9,400.1 L348.4,400.3 L348.9,400.5
		L349.4,400.7 L349.9,400.9 L350.4,401.0 L350.9,401.2 L351.4,401.4 L351.8,401.5 L352.3,401.7 L352.8,401.9
		L353.3,402.1 L353.8,402.2 L354.3,402.4 L354.8,402.5 L355.3,402.7 L355.8,402.9 L356.3,403.0 L356.8,403.2
		L357.3,403.3 L357.8,403.5 L358.3,403.7 L358.8,403.8 L359.3,404.0 L359.8,404.1 L360.3,404.3 L360.8,404.4
		L361.2,404.6 L361.7,404.7 L362.2,404.9 L362.7,405.0 L363.2,405.1 L363.7,405.3 L364.2,405.4 L364.7,405.6
		L365.2,405.7 L365.7,405.8 L366.2,406.0 L366.7,406.1 L367.2,406.2 L367.7,406.4 L368.2,406.5 L368.7,406.6
		L369.2,406.8 L369.7,406.9 L370.2,407.0 L370.6,407.2 L371.1,407.3 L371.6,407.4 L372.1,407.5 L372.6,407.7
		L373.1,407.8 L373.6,407.9 L374.1,408.0 L374.6,408.1 L375.1,408.3 L375.6,408.4 L376.1,408.5 L376.6,408.6
		L377.1,408.7 L377.6,408.8 L378.1,409.0 L378.6,409.1 L379.1,409.2 L379.6,409.3 L380.0,409.4 L380.5,409.5
		L381.0,409.6 L381.5,409.7 L382.0,409.8 L382.5,409.9 L383.0,410.0 L383.5,410.1 L384.0,410.2 L384.5,410.3
		L385.0,410.4 L385.5,410.5 L386.0,410.6 L386.5,410.7 L387.0,410.8 L387.5,410.9 L388.0,411.0 L388.5,411.1
		L389.0,411.2 L389.5,411.3 L389.9,411.4 L390.4,411.5 L390.9,411.6 L391.4,411.7 L391.9,411.8 L392.4,411.9
		L392.9,411.9 L393.4,412.0 L393.9,412.1 L394.4,412.2 L394.9,412.3 L395.4,412.4 L395.9,412.5 L396.4,412.5
		L396.9,412.6 L397.4,412.7 L397.9,412.8 L398.4,412.9 L398.9,413.0 L399.3,413.0 L399.8,413.1 L400.3,413.2
		L400.8,413.3 L401.3,413.3 L401.8,413.4 L402.3,413.5 L402.8,413.6 L403.3,413.7 L403.8,413.7 L404.3,413.8
		L404.8,413.9 L405.3,413.9 L405.8,414.0 L406.3,414.1 L406.8,414.2 L407.3,414.2 L407.8,414.3 L408.3,414.4
		L408.7,414.4 L409.2,414.5 L409.7,414.6 L410.2,414.6 L410.7,414.7 L411.2,414.8 L411.7,414.8 L412.2,414.9
		L412.7,415.0 L413.2,415.0 L413.7,415.1 L414.2,415.2 L414.7,415.2 L415.2,415.3 L415.7,415.3 L416.2,415.4
		L416.7,415.5 L417.2,415.5 L417.7,415.6 L418.1,415.6 L418.6,415.7 L419.1,415.7 L419.6,415.8 L420.1,415.9
		L420.6,415.9 L421.1,416.0 L421.6,416.0 L422.1,416.1 L422.6,416.1 L423.1,416.2 L423.6,416.2 L424.1,416.3
		L424.6,416.4 L425.1,416.4 L425.6,416.5 L426.1,416.5 L426.6,416.6 L427.1,416.6 L427.5,416.7 L428.0,416.7
		L428.5,416.8 L429.0,416.8 L429.5,416.9 L430.0,416.9 L430.5,416.9 L431.0,417.0 L431.5,417.0 L432.0,417.1
		L432.5,417.1 L433.0,417.2 L433.5,417.2 L434.0,417.3 L434.5,417.3 L435.0,417.4 L435.5,417.4 L436.0,417.4
		L436.5,417.5 L437.0,417.5 L437.4,417.6 L437.9,417.6 L438.4,417.7 L438.9,417.7 L439.4,417.7 L439.9,417.8
		L440.4,417.8 L440.9,417.9 L441.4,417.9 L441.9,417.9 L442.4,418.0 L442.9,418.0 L443.4,418.1 L443.9,418.1
		L444.4,418.1 L444.9,418.2 L445.4,418.2 L445.9,418.2 L446.4,418.3 L446.8,418.3 L447.3,418.4 L447.8,418.4
		L448.3,418.4 L448.8,418.5 L449.3,418.5 L449.8,418.5 L450.3,418.6 L450.8,418.6 L451.3,418.6 L451.8,418.7
		L452.3,418.7 L452.8,418.7 L453.3,418.8 L453.8,418.8 L454.3,418.8 L454.8,418.9 L455.3,418.9 L455.8,418.9
		L456.2,419.0 L456.7,419.0 L457.2,419.0 L457.7,419.0 L458.2,419.1 L458.7,419.1 L459.2,419.1 L459.7,419.2
		L460.2,419.2 L460.7,419.2 L461.2,419.3 L461.7,419.3 L462.2,419.3 L462.7,419.3 L463.2,419.4 L463.7,419.4
		L464.2,419.4 L464.7,419.4 L465.2,419.5 L465.6,419.5 L466.1,419.5 L466.6,419.6 L467.1,419.6 L467.6,419.6
		L468.1,419.6 L468.6,419.7 L469.1,419.7 L469.6,419.7 L470.1,419.7 L470.6,419.8 L471.1,419.8 L471.6,419.8
		L472.1,419.8 L472.6,419.8 L473.1,419.9 L473.6,419.9 L474.1,419.9 L474.6,419.9 L475.1,420.0 L475.5,420.0
		L476.0,420.0 L476.5,422.4 L477.0,422.4 L477.5,422.4 L478.0,422.4 L478.5,422.4 L479.0,422.4 L479.5,422.4
		L480.0,422.4 L480.5,422.4 L481.0,422.4 L481.5,422.4 L482.0,422.4 L482.5,422.4 L483.0,422.4 L483.5,422.4
		L484.0,422.4 L484.5,422.4 L484.9,422.4 L485.4,422.4 L485.9,422.4 L486.4,422.4 L486.9,422.4 L487.4,422.4
		L487.9,422.4 L488.4,422.4 L488.9,422.4 L489.4,422.4 L489.9,422.4 L490.4,422.4 L490.9,422.4 L491.4,422.4
		L491.9,422.4 L492.4,422.4 L492.9,422.4 L493.4,422.4 L493.9,422.4 L494.3,422.4 L494.8,422.4 L495.3,422.4
		L495.8,422.4 L496.3,422.4 L496.8,422.4 L497.3,422.4 L497.8,422.4 L498.3,422.4 L498.8,422.4 L499.3,422.4
		L499.8,422.4 L500.3,422.4 L500.8,422.4 L501.3,422.4 L501.8,422.4 L502.3,422.4 L502.8,422.4 L503.3,422.4
		L503.7,422.4 L504.2,422.4 L504.7,422.4 L505.2,422.4 L505.7,422.4 L506.2,422.4 L506.7,422.4 L507.2,422.4
		L507.7,422.4 L508.2,422.4 L508.7,422.4 L509.2,422.4 L509.7,422.4 L510.2,422.4 L510.7,422.4 L511.2,422.4
		L511.7,422.4 L512.2,422.4 L512.7,422.4 L513.2,422.4 L513.6,422.4 L514.1,422.4 L514.6,422.4 L515.1,422.4
		L515.6,422.4 L516.1,422.4 L516.6,422.4 L517.1,422.4 L517.6,422.4 L518.1,422.4 L518.6,422.4 L519.1,422.4
		L519.6,422.4 L520.1,422.4 L520.6,422.4 L521.1,422.4 L521.6,422.4 L522.1,422.4 L522.6,422.4 L523.0,422.4
		L523.5,422.4 L524.0,422.4 L524.5,422.4 L525.0,422.4 L525.5,422.4 L526.0,422.4 L526.5,422.4 L527.0,422.4
		L527.5,422.4 L528.0,422.4 L528.5,422.4 L529.0,422.4 L529.5,422.4 L530.0,422.4 L530.5,422.4 L531.0,422.4
		L531.5,422.4 L532.0,422.4 L532.4,422.4 L532.9,422.4 L533.4,422.4 L533.9,422.4 L534.4,422.4 L534.9,422.4
		L535.4,422.4 L535.9,422.4 L536.4,422.4 L536.9,422.4 L537.4,422.4 L537.9,422.4 L538.4,422.4 L538.9,422.4
		L539.4,422.4 L539.9,422.4 L540.4,422.4 L540.9,422.4 L541.4,422.4 L541.8,422.4 L542.3,422.4 L542.8,422.4
		L543.3,422.4 L543.8,422.4 L544.3,422.4 L544.8,422.4 L545.3,422.4 L545.8,422.4 L546.3,422.4 L546.8,422.4
		L547.3,422.4 L547.8,422.4 L548.3,422.4 L548.8,422.4 L549.3,422.4 L549.8,422.4 L550.3,422.4 L550.8,422.4
		L551.2,422.4 L551.7,422.4 L552.2,422.4 L552.7,422.4 L553.2,422.4 L553.7,422.4 L554.2,422.4 L554.7,422.4
		L555.2,422.4 L555.7,422.4 L556.2,422.4 L556.7,422.4 L557.2,422.4 L557.7,422.4 L558.2,422.4 L558.7,422.4
		L559.2,422.4 L559.7,422.4 L560.2,422.4 L560.7,422.4 L561.1,422.4 L561.6,422.4 L562.1,422.4 L562.6,422.4
		L563.1,422.4 L563.6,422.4 L564.1,422.4 L564.6,422.4 L565.1,422.4 L565.6,422.4 L566.1,422.4 L566.6,422.4
		L567.1,422.4 L567.6,422.4 L568.1,422.4 L568.6,422.4 L569.1,422.4 L569.6,422.4 L570.1,422.4 L570.5,422.4
		L571.0,422.4 L571.5,422.4 L572.0,422.4 L572.5,422.4 L573.0,422.4 L573.5,422.4 L574.0,422.4 L574.5,422.4
		 '/></g>
	</g>
<g fill="none" color="#FFFFFF" stroke="rgb(148,   0, 211)" stroke-width="2.00" stroke-linecap="butt" stroke-linejoin="miter">
</g>
<g fill="none" color="black" stroke="currentColor" stroke-width="2.00" stroke-linecap="butt" stroke-linejoin="miter">
</g>
<g fill="none" color="black" stroke="black" stroke-width="1.00" stroke-linecap="butt" stroke-linejoin="miter">
</g>
<g fill="none" color="black" stroke="currentColor" stroke-width="1.00" stroke-linecap="butt" stroke-linejoin="miter">
	<path stroke='black'  d='M80.2,54.1 L80.2,422.4 L575.0,422.4 L575.0,54.1 L80.2,54.1 Z  '/></g>
<g fill="none" color="black" stroke="currentColor" stroke-width="1.00" stroke-linecap="butt" stroke-linejoin="miter">
</g>
</g>
</svg>

